-- Merging decision tree log ---
manifest
ADDED from /Users/opastas/Documents/Solution/Adv/AndroidUsersList/Application/src/main/AndroidManifest.xml:20:1-49:12
INJECTED from /Users/opastas/Documents/Solution/Adv/AndroidUsersList/Application/src/main/AndroidManifest.xml:20:1-49:12
INJECTED from /Users/opastas/Documents/Solution/Adv/AndroidUsersList/Application/src/main/AndroidManifest.xml:20:1-49:12
INJECTED from /Users/opastas/Documents/Solution/Adv/AndroidUsersList/Application/src/main/AndroidManifest.xml:20:1-49:12
MERGED from [androidx.cardview:cardview:1.0.0] /Users/opastas/.gradle/caches/transforms-2/files-2.1/d7beabfce375e137a4db5fab8c5f5624/AndroidManifest.xml:17:1-22:12
MERGED from [androidx.constraintlayout:constraintlayout:2.1.0] /Users/opastas/.gradle/caches/transforms-2/files-2.1/03313a0316663ff2a9cf3ff4d7caa8dd/AndroidManifest.xml:2:1-11:12
MERGED from [com.google.dagger:dagger-android-support:2.13] /Users/opastas/.gradle/caches/transforms-2/files-2.1/02efa2e08951c2fa5bccf843e28b8a39/AndroidManifest.xml:16:1-19:12
MERGED from [androidx.appcompat:appcompat:1.3.1] /Users/opastas/.gradle/caches/transforms-2/files-2.1/03d43cbeabe8ee804bdf9385f6de2158/AndroidManifest.xml:17:1-24:12
MERGED from [io.reactivex.rxjava2:rxandroid:2.0.1] /Users/opastas/.gradle/caches/transforms-2/files-2.1/0b17ed30ccd53c4c6483eb426753ea2e/AndroidManifest.xml:15:1-21:12
MERGED from [com.google.dagger:dagger-android:2.13] /Users/opastas/.gradle/caches/transforms-2/files-2.1/d3de6d225fa89d44b80c2842bef89965/AndroidManifest.xml:16:1-19:12
MERGED from [androidx.recyclerview:recyclerview:1.0.0] /Users/opastas/.gradle/caches/transforms-2/files-2.1/8837607160e221fa6202b1c1d4543d63/AndroidManifest.xml:17:1-22:12
MERGED from [com.github.bumptech.glide:glide:4.8.0] /Users/opastas/.gradle/caches/transforms-2/files-2.1/366e9eefc132d3d8726a5db564797c81/AndroidManifest.xml:2:1-12:12
MERGED from [androidx.lifecycle:lifecycle-extensions:2.0.0] /Users/opastas/.gradle/caches/transforms-2/files-2.1/c4ecc44bbb8c02a60af0c4afb4da4c47/AndroidManifest.xml:17:1-25:12
MERGED from [androidx.fragment:fragment:1.3.6] /Users/opastas/.gradle/caches/transforms-2/files-2.1/9aa2a96e452d94b1cecf2a5a5b04798f/AndroidManifest.xml:17:1-24:12
MERGED from [androidx.activity:activity:1.2.4] /Users/opastas/.gradle/caches/transforms-2/files-2.1/10fec06fd73f497b364eefdd2f5f7d97/AndroidManifest.xml:17:1-24:12
MERGED from [androidx.appcompat:appcompat-resources:1.3.1] /Users/opastas/.gradle/caches/transforms-2/files-2.1/710e88c963218113a5ae3d06386795d2/AndroidManifest.xml:17:1-24:12
MERGED from [androidx.legacy:legacy-support-core-ui:1.0.0] /Users/opastas/.gradle/caches/transforms-2/files-2.1/6d9f356d7d30aaf4edaaf3f4c924d262/AndroidManifest.xml:17:1-22:12
MERGED from [androidx.drawerlayout:drawerlayout:1.0.0] /Users/opastas/.gradle/caches/transforms-2/files-2.1/c783b68ff929f168307bd425f243f918/AndroidManifest.xml:17:1-22:12
MERGED from [androidx.viewpager:viewpager:1.0.0] /Users/opastas/.gradle/caches/transforms-2/files-2.1/a928560c000c09d8483acf4b1fb4a7fc/AndroidManifest.xml:17:1-22:12
MERGED from [androidx.legacy:legacy-support-core-utils:1.0.0] /Users/opastas/.gradle/caches/transforms-2/files-2.1/4cc68b7727071745ba0618eeccd23541/AndroidManifest.xml:17:1-22:12
MERGED from [androidx.loader:loader:1.0.0] /Users/opastas/.gradle/caches/transforms-2/files-2.1/e43b6a1788eadc5a09e1e8b21fddb4de/AndroidManifest.xml:17:1-22:12
MERGED from [androidx.vectordrawable:vectordrawable-animated:1.1.0] /Users/opastas/.gradle/caches/transforms-2/files-2.1/30b79d46d4759b265bf40db3deed4040/AndroidManifest.xml:17:1-24:12
MERGED from [androidx.vectordrawable:vectordrawable:1.1.0] /Users/opastas/.gradle/caches/transforms-2/files-2.1/95649abba02a9699eadb3a519fb2779f/AndroidManifest.xml:17:1-24:12
MERGED from [androidx.coordinatorlayout:coordinatorlayout:1.0.0] /Users/opastas/.gradle/caches/transforms-2/files-2.1/046af1a2a8cd041f30f207f840fe6892/AndroidManifest.xml:17:1-22:12
MERGED from [androidx.slidingpanelayout:slidingpanelayout:1.0.0] /Users/opastas/.gradle/caches/transforms-2/files-2.1/f2ec7e8b8788846261d86e8bd35626dd/AndroidManifest.xml:17:1-22:12
MERGED from [androidx.customview:customview:1.0.0] /Users/opastas/.gradle/caches/transforms-2/files-2.1/1d8db05d8f9f8cfae21f20e4406529de/AndroidManifest.xml:17:1-22:12
MERGED from [androidx.swiperefreshlayout:swiperefreshlayout:1.0.0] /Users/opastas/.gradle/caches/transforms-2/files-2.1/8b4c921463bc2ae395093acefaf7a2d0/AndroidManifest.xml:17:1-22:12
MERGED from [androidx.asynclayoutinflater:asynclayoutinflater:1.0.0] /Users/opastas/.gradle/caches/transforms-2/files-2.1/7a65aac75a0decb37ac22134070f9c24/AndroidManifest.xml:17:1-22:12
MERGED from [androidx.core:core:1.5.0] /Users/opastas/.gradle/caches/transforms-2/files-2.1/036cd95a40b944a4f2ec600c6f7832fe/AndroidManifest.xml:17:1-26:12
MERGED from [androidx.cursoradapter:cursoradapter:1.0.0] /Users/opastas/.gradle/caches/transforms-2/files-2.1/3dbc52bc8290683c925f027117fc4972/AndroidManifest.xml:17:1-22:12
MERGED from [androidx.lifecycle:lifecycle-viewmodel-savedstate:2.3.1] /Users/opastas/.gradle/caches/transforms-2/files-2.1/5e91908390d4a655f5b5b111062f99c0/AndroidManifest.xml:17:1-24:12
MERGED from [androidx.savedstate:savedstate:1.1.0] /Users/opastas/.gradle/caches/transforms-2/files-2.1/de6717261b6b42c13c8e7b5cd5dd54dc/AndroidManifest.xml:17:1-24:12
MERGED from [androidx.lifecycle:lifecycle-process:2.0.0] /Users/opastas/.gradle/caches/transforms-2/files-2.1/5416d28488c7fc105837412376f5d385/AndroidManifest.xml:17:1-30:12
MERGED from [androidx.lifecycle:lifecycle-service:2.0.0] /Users/opastas/.gradle/caches/transforms-2/files-2.1/66fa549bbb0c5060b4235ff91ef390f2/AndroidManifest.xml:17:1-22:12
MERGED from [androidx.lifecycle:lifecycle-runtime:2.3.1] /Users/opastas/.gradle/caches/transforms-2/files-2.1/39f5ba3bce4e47cbecde4631c7c9bf67/AndroidManifest.xml:17:1-24:12
MERGED from [androidx.lifecycle:lifecycle-viewmodel:2.3.1] /Users/opastas/.gradle/caches/transforms-2/files-2.1/124b9fc283797bd704812d52b2f530f2/AndroidManifest.xml:17:1-24:12
MERGED from [com.github.bumptech.glide:gifdecoder:4.8.0] /Users/opastas/.gradle/caches/transforms-2/files-2.1/e7964361b5ae943a6e485035e8ec1114/AndroidManifest.xml:2:1-11:12
MERGED from [androidx.versionedparcelable:versionedparcelable:1.1.1] /Users/opastas/.gradle/caches/transforms-2/files-2.1/1d91ee62ffe5c50045294061136ec557/AndroidManifest.xml:17:1-27:12
MERGED from [androidx.tracing:tracing:1.0.0] /Users/opastas/.gradle/caches/transforms-2/files-2.1/08ba3ca296c7ae4b6e1bab86af730c2f/AndroidManifest.xml:17:1-24:12
MERGED from [androidx.lifecycle:lifecycle-livedata:2.0.0] /Users/opastas/.gradle/caches/transforms-2/files-2.1/42312ab92e1d2429efc41fa0c9551229/AndroidManifest.xml:17:1-22:12
MERGED from [androidx.lifecycle:lifecycle-livedata-core:2.3.1] /Users/opastas/.gradle/caches/transforms-2/files-2.1/2f2763dceb2e190b60b7a37d2af27e37/AndroidManifest.xml:17:1-24:12
MERGED from [androidx.arch.core:core-runtime:2.1.0] /Users/opastas/.gradle/caches/transforms-2/files-2.1/eef6c7e0774f27aea75b0f2083c15695/AndroidManifest.xml:17:1-24:12
MERGED from [androidx.interpolator:interpolator:1.0.0] /Users/opastas/.gradle/caches/transforms-2/files-2.1/84255b860ade70d35da179d8f72bb1b7/AndroidManifest.xml:17:1-22:12
MERGED from [androidx.documentfile:documentfile:1.0.0] /Users/opastas/.gradle/caches/transforms-2/files-2.1/4bbb5091567a2861678ba507ac600d8f/AndroidManifest.xml:17:1-22:12
MERGED from [androidx.localbroadcastmanager:localbroadcastmanager:1.0.0] /Users/opastas/.gradle/caches/transforms-2/files-2.1/9f5e30a16dc2f41afb46551c8c9f2d13/AndroidManifest.xml:17:1-22:12
MERGED from [androidx.print:print:1.0.0] /Users/opastas/.gradle/caches/transforms-2/files-2.1/0823f06e828d371659e9ec707ac5d6ea/AndroidManifest.xml:17:1-22:12
MERGED from [androidx.annotation:annotation-experimental:1.0.0] /Users/opastas/.gradle/caches/transforms-2/files-2.1/b774dc0cf9121e5fddb5e9091c071700/AndroidManifest.xml:17:1-24:12
INJECTED from /Users/opastas/Documents/Solution/Adv/AndroidUsersList/Application/src/main/AndroidManifest.xml:20:1-49:12
INJECTED from /Users/opastas/Documents/Solution/Adv/AndroidUsersList/Application/src/main/AndroidManifest.xml:20:1-49:12
INJECTED from /Users/opastas/Documents/Solution/Adv/AndroidUsersList/Application/src/main/AndroidManifest.xml:20:1-49:12
	package
		ADDED from /Users/opastas/Documents/Solution/Adv/AndroidUsersList/Application/src/main/AndroidManifest.xml:22:5-49
		INJECTED from /Users/opastas/Documents/Solution/Adv/AndroidUsersList/Application/src/main/AndroidManifest.xml
		INJECTED from /Users/opastas/Documents/Solution/Adv/AndroidUsersList/Application/src/main/AndroidManifest.xml
	android:versionName
		ADDED from /Users/opastas/Documents/Solution/Adv/AndroidUsersList/Application/src/main/AndroidManifest.xml:24:5-30
		INJECTED from /Users/opastas/Documents/Solution/Adv/AndroidUsersList/Application/src/main/AndroidManifest.xml
		INJECTED from /Users/opastas/Documents/Solution/Adv/AndroidUsersList/Application/src/main/AndroidManifest.xml
	xmlns:android
		ADDED from /Users/opastas/Documents/Solution/Adv/AndroidUsersList/Application/src/main/AndroidManifest.xml:21:5-63
	android:versionCode
		ADDED from /Users/opastas/Documents/Solution/Adv/AndroidUsersList/Application/src/main/AndroidManifest.xml:23:5-28
		INJECTED from /Users/opastas/Documents/Solution/Adv/AndroidUsersList/Application/src/main/AndroidManifest.xml
		INJECTED from /Users/opastas/Documents/Solution/Adv/AndroidUsersList/Application/src/main/AndroidManifest.xml
uses-permission#android.permission.INTERNET
ADDED from /Users/opastas/Documents/Solution/Adv/AndroidUsersList/Application/src/main/AndroidManifest.xml:27:5-67
	android:name
		ADDED from /Users/opastas/Documents/Solution/Adv/AndroidUsersList/Application/src/main/AndroidManifest.xml:27:22-64
uses-permission#android.permission.ACCESS_NETWORK_STATE
ADDED from /Users/opastas/Documents/Solution/Adv/AndroidUsersList/Application/src/main/AndroidManifest.xml:28:5-79
	android:name
		ADDED from /Users/opastas/Documents/Solution/Adv/AndroidUsersList/Application/src/main/AndroidManifest.xml:28:22-76
application
ADDED from /Users/opastas/Documents/Solution/Adv/AndroidUsersList/Application/src/main/AndroidManifest.xml:30:5-48:19
MERGED from [androidx.constraintlayout:constraintlayout:2.1.0] /Users/opastas/.gradle/caches/transforms-2/files-2.1/03313a0316663ff2a9cf3ff4d7caa8dd/AndroidManifest.xml:9:5-20
MERGED from [androidx.constraintlayout:constraintlayout:2.1.0] /Users/opastas/.gradle/caches/transforms-2/files-2.1/03313a0316663ff2a9cf3ff4d7caa8dd/AndroidManifest.xml:9:5-20
MERGED from [com.github.bumptech.glide:glide:4.8.0] /Users/opastas/.gradle/caches/transforms-2/files-2.1/366e9eefc132d3d8726a5db564797c81/AndroidManifest.xml:10:5-20
MERGED from [com.github.bumptech.glide:glide:4.8.0] /Users/opastas/.gradle/caches/transforms-2/files-2.1/366e9eefc132d3d8726a5db564797c81/AndroidManifest.xml:10:5-20
MERGED from [androidx.lifecycle:lifecycle-extensions:2.0.0] /Users/opastas/.gradle/caches/transforms-2/files-2.1/c4ecc44bbb8c02a60af0c4afb4da4c47/AndroidManifest.xml:22:5-23:19
MERGED from [androidx.lifecycle:lifecycle-extensions:2.0.0] /Users/opastas/.gradle/caches/transforms-2/files-2.1/c4ecc44bbb8c02a60af0c4afb4da4c47/AndroidManifest.xml:22:5-23:19
MERGED from [androidx.core:core:1.5.0] /Users/opastas/.gradle/caches/transforms-2/files-2.1/036cd95a40b944a4f2ec600c6f7832fe/AndroidManifest.xml:24:5-89
MERGED from [androidx.core:core:1.5.0] /Users/opastas/.gradle/caches/transforms-2/files-2.1/036cd95a40b944a4f2ec600c6f7832fe/AndroidManifest.xml:24:5-89
MERGED from [androidx.lifecycle:lifecycle-process:2.0.0] /Users/opastas/.gradle/caches/transforms-2/files-2.1/5416d28488c7fc105837412376f5d385/AndroidManifest.xml:22:5-28:19
MERGED from [androidx.lifecycle:lifecycle-process:2.0.0] /Users/opastas/.gradle/caches/transforms-2/files-2.1/5416d28488c7fc105837412376f5d385/AndroidManifest.xml:22:5-28:19
MERGED from [com.github.bumptech.glide:gifdecoder:4.8.0] /Users/opastas/.gradle/caches/transforms-2/files-2.1/e7964361b5ae943a6e485035e8ec1114/AndroidManifest.xml:9:5-20
MERGED from [com.github.bumptech.glide:gifdecoder:4.8.0] /Users/opastas/.gradle/caches/transforms-2/files-2.1/e7964361b5ae943a6e485035e8ec1114/AndroidManifest.xml:9:5-20
MERGED from [androidx.versionedparcelable:versionedparcelable:1.1.1] /Users/opastas/.gradle/caches/transforms-2/files-2.1/1d91ee62ffe5c50045294061136ec557/AndroidManifest.xml:24:5-25:19
MERGED from [androidx.versionedparcelable:versionedparcelable:1.1.1] /Users/opastas/.gradle/caches/transforms-2/files-2.1/1d91ee62ffe5c50045294061136ec557/AndroidManifest.xml:24:5-25:19
	android:appComponentFactory
		ADDED from [androidx.core:core:1.5.0] /Users/opastas/.gradle/caches/transforms-2/files-2.1/036cd95a40b944a4f2ec600c6f7832fe/AndroidManifest.xml:24:18-86
	android:label
		ADDED from /Users/opastas/Documents/Solution/Adv/AndroidUsersList/Application/src/main/AndroidManifest.xml:32:9-41
	android:icon
		ADDED from /Users/opastas/Documents/Solution/Adv/AndroidUsersList/Application/src/main/AndroidManifest.xml:33:9-45
	android:allowBackup
		ADDED from /Users/opastas/Documents/Solution/Adv/AndroidUsersList/Application/src/main/AndroidManifest.xml:35:9-35
	android:theme
		ADDED from /Users/opastas/Documents/Solution/Adv/AndroidUsersList/Application/src/main/AndroidManifest.xml:34:9-40
	android:networkSecurityConfig
		ADDED from /Users/opastas/Documents/Solution/Adv/AndroidUsersList/Application/src/main/AndroidManifest.xml:36:9-69
	android:name
		ADDED from /Users/opastas/Documents/Solution/Adv/AndroidUsersList/Application/src/main/AndroidManifest.xml:31:9-43
activity#com.example.android.networkconnect.MainActivity
ADDED from /Users/opastas/Documents/Solution/Adv/AndroidUsersList/Application/src/main/AndroidManifest.xml:37:9-44:20
	android:name
		ADDED from /Users/opastas/Documents/Solution/Adv/AndroidUsersList/Application/src/main/AndroidManifest.xml:38:13-75
intent-filter#action:name:android.intent.action.MAIN+category:name:android.intent.category.LAUNCHER
ADDED from /Users/opastas/Documents/Solution/Adv/AndroidUsersList/Application/src/main/AndroidManifest.xml:39:13-43:29
action#android.intent.action.MAIN
ADDED from /Users/opastas/Documents/Solution/Adv/AndroidUsersList/Application/src/main/AndroidManifest.xml:40:17-69
	android:name
		ADDED from /Users/opastas/Documents/Solution/Adv/AndroidUsersList/Application/src/main/AndroidManifest.xml:40:25-66
category#android.intent.category.LAUNCHER
ADDED from /Users/opastas/Documents/Solution/Adv/AndroidUsersList/Application/src/main/AndroidManifest.xml:42:17-77
	android:name
		ADDED from /Users/opastas/Documents/Solution/Adv/AndroidUsersList/Application/src/main/AndroidManifest.xml:42:27-74
activity#com.example.android.networkconnect.StatusActivity
ADDED from /Users/opastas/Documents/Solution/Adv/AndroidUsersList/Application/src/main/AndroidManifest.xml:45:9-47:59
	android:label
		ADDED from /Users/opastas/Documents/Solution/Adv/AndroidUsersList/Application/src/main/AndroidManifest.xml:46:13-45
	android:uiOptions
		ADDED from /Users/opastas/Documents/Solution/Adv/AndroidUsersList/Application/src/main/AndroidManifest.xml:47:13-57
	android:name
		ADDED from /Users/opastas/Documents/Solution/Adv/AndroidUsersList/Application/src/main/AndroidManifest.xml:45:19-83
uses-sdk
INJECTED from /Users/opastas/Documents/Solution/Adv/AndroidUsersList/Application/src/main/AndroidManifest.xml reason: use-sdk injection requested
INJECTED from /Users/opastas/Documents/Solution/Adv/AndroidUsersList/Application/src/main/AndroidManifest.xml
INJECTED from /Users/opastas/Documents/Solution/Adv/AndroidUsersList/Application/src/main/AndroidManifest.xml
MERGED from [androidx.cardview:cardview:1.0.0] /Users/opastas/.gradle/caches/transforms-2/files-2.1/d7beabfce375e137a4db5fab8c5f5624/AndroidManifest.xml:20:5-44
MERGED from [androidx.cardview:cardview:1.0.0] /Users/opastas/.gradle/caches/transforms-2/files-2.1/d7beabfce375e137a4db5fab8c5f5624/AndroidManifest.xml:20:5-44
MERGED from [androidx.constraintlayout:constraintlayout:2.1.0] /Users/opastas/.gradle/caches/transforms-2/files-2.1/03313a0316663ff2a9cf3ff4d7caa8dd/AndroidManifest.xml:5:5-7:41
MERGED from [androidx.constraintlayout:constraintlayout:2.1.0] /Users/opastas/.gradle/caches/transforms-2/files-2.1/03313a0316663ff2a9cf3ff4d7caa8dd/AndroidManifest.xml:5:5-7:41
MERGED from [com.google.dagger:dagger-android-support:2.13] /Users/opastas/.gradle/caches/transforms-2/files-2.1/02efa2e08951c2fa5bccf843e28b8a39/AndroidManifest.xml:18:3-42
MERGED from [com.google.dagger:dagger-android-support:2.13] /Users/opastas/.gradle/caches/transforms-2/files-2.1/02efa2e08951c2fa5bccf843e28b8a39/AndroidManifest.xml:18:3-42
MERGED from [androidx.appcompat:appcompat:1.3.1] /Users/opastas/.gradle/caches/transforms-2/files-2.1/03d43cbeabe8ee804bdf9385f6de2158/AndroidManifest.xml:20:5-22:41
MERGED from [androidx.appcompat:appcompat:1.3.1] /Users/opastas/.gradle/caches/transforms-2/files-2.1/03d43cbeabe8ee804bdf9385f6de2158/AndroidManifest.xml:20:5-22:41
MERGED from [io.reactivex.rxjava2:rxandroid:2.0.1] /Users/opastas/.gradle/caches/transforms-2/files-2.1/0b17ed30ccd53c4c6483eb426753ea2e/AndroidManifest.xml:19:5-43
MERGED from [io.reactivex.rxjava2:rxandroid:2.0.1] /Users/opastas/.gradle/caches/transforms-2/files-2.1/0b17ed30ccd53c4c6483eb426753ea2e/AndroidManifest.xml:19:5-43
MERGED from [com.google.dagger:dagger-android:2.13] /Users/opastas/.gradle/caches/transforms-2/files-2.1/d3de6d225fa89d44b80c2842bef89965/AndroidManifest.xml:18:3-42
MERGED from [com.google.dagger:dagger-android:2.13] /Users/opastas/.gradle/caches/transforms-2/files-2.1/d3de6d225fa89d44b80c2842bef89965/AndroidManifest.xml:18:3-42
MERGED from [androidx.recyclerview:recyclerview:1.0.0] /Users/opastas/.gradle/caches/transforms-2/files-2.1/8837607160e221fa6202b1c1d4543d63/AndroidManifest.xml:20:5-44
MERGED from [androidx.recyclerview:recyclerview:1.0.0] /Users/opastas/.gradle/caches/transforms-2/files-2.1/8837607160e221fa6202b1c1d4543d63/AndroidManifest.xml:20:5-44
MERGED from [com.github.bumptech.glide:glide:4.8.0] /Users/opastas/.gradle/caches/transforms-2/files-2.1/366e9eefc132d3d8726a5db564797c81/AndroidManifest.xml:6:5-8:41
MERGED from [com.github.bumptech.glide:glide:4.8.0] /Users/opastas/.gradle/caches/transforms-2/files-2.1/366e9eefc132d3d8726a5db564797c81/AndroidManifest.xml:6:5-8:41
MERGED from [androidx.lifecycle:lifecycle-extensions:2.0.0] /Users/opastas/.gradle/caches/transforms-2/files-2.1/c4ecc44bbb8c02a60af0c4afb4da4c47/AndroidManifest.xml:20:5-44
MERGED from [androidx.lifecycle:lifecycle-extensions:2.0.0] /Users/opastas/.gradle/caches/transforms-2/files-2.1/c4ecc44bbb8c02a60af0c4afb4da4c47/AndroidManifest.xml:20:5-44
MERGED from [androidx.fragment:fragment:1.3.6] /Users/opastas/.gradle/caches/transforms-2/files-2.1/9aa2a96e452d94b1cecf2a5a5b04798f/AndroidManifest.xml:20:5-22:41
MERGED from [androidx.fragment:fragment:1.3.6] /Users/opastas/.gradle/caches/transforms-2/files-2.1/9aa2a96e452d94b1cecf2a5a5b04798f/AndroidManifest.xml:20:5-22:41
MERGED from [androidx.activity:activity:1.2.4] /Users/opastas/.gradle/caches/transforms-2/files-2.1/10fec06fd73f497b364eefdd2f5f7d97/AndroidManifest.xml:20:5-22:41
MERGED from [androidx.activity:activity:1.2.4] /Users/opastas/.gradle/caches/transforms-2/files-2.1/10fec06fd73f497b364eefdd2f5f7d97/AndroidManifest.xml:20:5-22:41
MERGED from [androidx.appcompat:appcompat-resources:1.3.1] /Users/opastas/.gradle/caches/transforms-2/files-2.1/710e88c963218113a5ae3d06386795d2/AndroidManifest.xml:20:5-22:41
MERGED from [androidx.appcompat:appcompat-resources:1.3.1] /Users/opastas/.gradle/caches/transforms-2/files-2.1/710e88c963218113a5ae3d06386795d2/AndroidManifest.xml:20:5-22:41
MERGED from [androidx.legacy:legacy-support-core-ui:1.0.0] /Users/opastas/.gradle/caches/transforms-2/files-2.1/6d9f356d7d30aaf4edaaf3f4c924d262/AndroidManifest.xml:20:5-44
MERGED from [androidx.legacy:legacy-support-core-ui:1.0.0] /Users/opastas/.gradle/caches/transforms-2/files-2.1/6d9f356d7d30aaf4edaaf3f4c924d262/AndroidManifest.xml:20:5-44
MERGED from [androidx.drawerlayout:drawerlayout:1.0.0] /Users/opastas/.gradle/caches/transforms-2/files-2.1/c783b68ff929f168307bd425f243f918/AndroidManifest.xml:20:5-44
MERGED from [androidx.drawerlayout:drawerlayout:1.0.0] /Users/opastas/.gradle/caches/transforms-2/files-2.1/c783b68ff929f168307bd425f243f918/AndroidManifest.xml:20:5-44
MERGED from [androidx.viewpager:viewpager:1.0.0] /Users/opastas/.gradle/caches/transforms-2/files-2.1/a928560c000c09d8483acf4b1fb4a7fc/AndroidManifest.xml:20:5-44
MERGED from [androidx.viewpager:viewpager:1.0.0] /Users/opastas/.gradle/caches/transforms-2/files-2.1/a928560c000c09d8483acf4b1fb4a7fc/AndroidManifest.xml:20:5-44
MERGED from [androidx.legacy:legacy-support-core-utils:1.0.0] /Users/opastas/.gradle/caches/transforms-2/files-2.1/4cc68b7727071745ba0618eeccd23541/AndroidManifest.xml:20:5-44
MERGED from [androidx.legacy:legacy-support-core-utils:1.0.0] /Users/opastas/.gradle/caches/transforms-2/files-2.1/4cc68b7727071745ba0618eeccd23541/AndroidManifest.xml:20:5-44
MERGED from [androidx.loader:loader:1.0.0] /Users/opastas/.gradle/caches/transforms-2/files-2.1/e43b6a1788eadc5a09e1e8b21fddb4de/AndroidManifest.xml:20:5-44
MERGED from [androidx.loader:loader:1.0.0] /Users/opastas/.gradle/caches/transforms-2/files-2.1/e43b6a1788eadc5a09e1e8b21fddb4de/AndroidManifest.xml:20:5-44
MERGED from [androidx.vectordrawable:vectordrawable-animated:1.1.0] /Users/opastas/.gradle/caches/transforms-2/files-2.1/30b79d46d4759b265bf40db3deed4040/AndroidManifest.xml:20:5-22:41
MERGED from [androidx.vectordrawable:vectordrawable-animated:1.1.0] /Users/opastas/.gradle/caches/transforms-2/files-2.1/30b79d46d4759b265bf40db3deed4040/AndroidManifest.xml:20:5-22:41
MERGED from [androidx.vectordrawable:vectordrawable:1.1.0] /Users/opastas/.gradle/caches/transforms-2/files-2.1/95649abba02a9699eadb3a519fb2779f/AndroidManifest.xml:20:5-22:41
MERGED from [androidx.vectordrawable:vectordrawable:1.1.0] /Users/opastas/.gradle/caches/transforms-2/files-2.1/95649abba02a9699eadb3a519fb2779f/AndroidManifest.xml:20:5-22:41
MERGED from [androidx.coordinatorlayout:coordinatorlayout:1.0.0] /Users/opastas/.gradle/caches/transforms-2/files-2.1/046af1a2a8cd041f30f207f840fe6892/AndroidManifest.xml:20:5-44
MERGED from [androidx.coordinatorlayout:coordinatorlayout:1.0.0] /Users/opastas/.gradle/caches/transforms-2/files-2.1/046af1a2a8cd041f30f207f840fe6892/AndroidManifest.xml:20:5-44
MERGED from [androidx.slidingpanelayout:slidingpanelayout:1.0.0] /Users/opastas/.gradle/caches/transforms-2/files-2.1/f2ec7e8b8788846261d86e8bd35626dd/AndroidManifest.xml:20:5-44
MERGED from [androidx.slidingpanelayout:slidingpanelayout:1.0.0] /Users/opastas/.gradle/caches/transforms-2/files-2.1/f2ec7e8b8788846261d86e8bd35626dd/AndroidManifest.xml:20:5-44
MERGED from [androidx.customview:customview:1.0.0] /Users/opastas/.gradle/caches/transforms-2/files-2.1/1d8db05d8f9f8cfae21f20e4406529de/AndroidManifest.xml:20:5-44
MERGED from [androidx.customview:customview:1.0.0] /Users/opastas/.gradle/caches/transforms-2/files-2.1/1d8db05d8f9f8cfae21f20e4406529de/AndroidManifest.xml:20:5-44
MERGED from [androidx.swiperefreshlayout:swiperefreshlayout:1.0.0] /Users/opastas/.gradle/caches/transforms-2/files-2.1/8b4c921463bc2ae395093acefaf7a2d0/AndroidManifest.xml:20:5-44
MERGED from [androidx.swiperefreshlayout:swiperefreshlayout:1.0.0] /Users/opastas/.gradle/caches/transforms-2/files-2.1/8b4c921463bc2ae395093acefaf7a2d0/AndroidManifest.xml:20:5-44
MERGED from [androidx.asynclayoutinflater:asynclayoutinflater:1.0.0] /Users/opastas/.gradle/caches/transforms-2/files-2.1/7a65aac75a0decb37ac22134070f9c24/AndroidManifest.xml:20:5-44
MERGED from [androidx.asynclayoutinflater:asynclayoutinflater:1.0.0] /Users/opastas/.gradle/caches/transforms-2/files-2.1/7a65aac75a0decb37ac22134070f9c24/AndroidManifest.xml:20:5-44
MERGED from [androidx.core:core:1.5.0] /Users/opastas/.gradle/caches/transforms-2/files-2.1/036cd95a40b944a4f2ec600c6f7832fe/AndroidManifest.xml:20:5-22:41
MERGED from [androidx.core:core:1.5.0] /Users/opastas/.gradle/caches/transforms-2/files-2.1/036cd95a40b944a4f2ec600c6f7832fe/AndroidManifest.xml:20:5-22:41
MERGED from [androidx.cursoradapter:cursoradapter:1.0.0] /Users/opastas/.gradle/caches/transforms-2/files-2.1/3dbc52bc8290683c925f027117fc4972/AndroidManifest.xml:20:5-44
MERGED from [androidx.cursoradapter:cursoradapter:1.0.0] /Users/opastas/.gradle/caches/transforms-2/files-2.1/3dbc52bc8290683c925f027117fc4972/AndroidManifest.xml:20:5-44
MERGED from [androidx.lifecycle:lifecycle-viewmodel-savedstate:2.3.1] /Users/opastas/.gradle/caches/transforms-2/files-2.1/5e91908390d4a655f5b5b111062f99c0/AndroidManifest.xml:20:5-22:41
MERGED from [androidx.lifecycle:lifecycle-viewmodel-savedstate:2.3.1] /Users/opastas/.gradle/caches/transforms-2/files-2.1/5e91908390d4a655f5b5b111062f99c0/AndroidManifest.xml:20:5-22:41
MERGED from [androidx.savedstate:savedstate:1.1.0] /Users/opastas/.gradle/caches/transforms-2/files-2.1/de6717261b6b42c13c8e7b5cd5dd54dc/AndroidManifest.xml:20:5-22:41
MERGED from [androidx.savedstate:savedstate:1.1.0] /Users/opastas/.gradle/caches/transforms-2/files-2.1/de6717261b6b42c13c8e7b5cd5dd54dc/AndroidManifest.xml:20:5-22:41
MERGED from [androidx.lifecycle:lifecycle-process:2.0.0] /Users/opastas/.gradle/caches/transforms-2/files-2.1/5416d28488c7fc105837412376f5d385/AndroidManifest.xml:20:5-44
MERGED from [androidx.lifecycle:lifecycle-process:2.0.0] /Users/opastas/.gradle/caches/transforms-2/files-2.1/5416d28488c7fc105837412376f5d385/AndroidManifest.xml:20:5-44
MERGED from [androidx.lifecycle:lifecycle-service:2.0.0] /Users/opastas/.gradle/caches/transforms-2/files-2.1/66fa549bbb0c5060b4235ff91ef390f2/AndroidManifest.xml:20:5-44
MERGED from [androidx.lifecycle:lifecycle-service:2.0.0] /Users/opastas/.gradle/caches/transforms-2/files-2.1/66fa549bbb0c5060b4235ff91ef390f2/AndroidManifest.xml:20:5-44
MERGED from [androidx.lifecycle:lifecycle-runtime:2.3.1] /Users/opastas/.gradle/caches/transforms-2/files-2.1/39f5ba3bce4e47cbecde4631c7c9bf67/AndroidManifest.xml:20:5-22:41
MERGED from [androidx.lifecycle:lifecycle-runtime:2.3.1] /Users/opastas/.gradle/caches/transforms-2/files-2.1/39f5ba3bce4e47cbecde4631c7c9bf67/AndroidManifest.xml:20:5-22:41
MERGED from [androidx.lifecycle:lifecycle-viewmodel:2.3.1] /Users/opastas/.gradle/caches/transforms-2/files-2.1/124b9fc283797bd704812d52b2f530f2/AndroidManifest.xml:20:5-22:41
MERGED from [androidx.lifecycle:lifecycle-viewmodel:2.3.1] /Users/opastas/.gradle/caches/transforms-2/files-2.1/124b9fc283797bd704812d52b2f530f2/AndroidManifest.xml:20:5-22:41
MERGED from [com.github.bumptech.glide:gifdecoder:4.8.0] /Users/opastas/.gradle/caches/transforms-2/files-2.1/e7964361b5ae943a6e485035e8ec1114/AndroidManifest.xml:5:5-7:41
MERGED from [com.github.bumptech.glide:gifdecoder:4.8.0] /Users/opastas/.gradle/caches/transforms-2/files-2.1/e7964361b5ae943a6e485035e8ec1114/AndroidManifest.xml:5:5-7:41
MERGED from [androidx.versionedparcelable:versionedparcelable:1.1.1] /Users/opastas/.gradle/caches/transforms-2/files-2.1/1d91ee62ffe5c50045294061136ec557/AndroidManifest.xml:20:5-22:41
MERGED from [androidx.versionedparcelable:versionedparcelable:1.1.1] /Users/opastas/.gradle/caches/transforms-2/files-2.1/1d91ee62ffe5c50045294061136ec557/AndroidManifest.xml:20:5-22:41
MERGED from [androidx.tracing:tracing:1.0.0] /Users/opastas/.gradle/caches/transforms-2/files-2.1/08ba3ca296c7ae4b6e1bab86af730c2f/AndroidManifest.xml:20:5-22:41
MERGED from [androidx.tracing:tracing:1.0.0] /Users/opastas/.gradle/caches/transforms-2/files-2.1/08ba3ca296c7ae4b6e1bab86af730c2f/AndroidManifest.xml:20:5-22:41
MERGED from [androidx.lifecycle:lifecycle-livedata:2.0.0] /Users/opastas/.gradle/caches/transforms-2/files-2.1/42312ab92e1d2429efc41fa0c9551229/AndroidManifest.xml:20:5-44
MERGED from [androidx.lifecycle:lifecycle-livedata:2.0.0] /Users/opastas/.gradle/caches/transforms-2/files-2.1/42312ab92e1d2429efc41fa0c9551229/AndroidManifest.xml:20:5-44
MERGED from [androidx.lifecycle:lifecycle-livedata-core:2.3.1] /Users/opastas/.gradle/caches/transforms-2/files-2.1/2f2763dceb2e190b60b7a37d2af27e37/AndroidManifest.xml:20:5-22:41
MERGED from [androidx.lifecycle:lifecycle-livedata-core:2.3.1] /Users/opastas/.gradle/caches/transforms-2/files-2.1/2f2763dceb2e190b60b7a37d2af27e37/AndroidManifest.xml:20:5-22:41
MERGED from [androidx.arch.core:core-runtime:2.1.0] /Users/opastas/.gradle/caches/transforms-2/files-2.1/eef6c7e0774f27aea75b0f2083c15695/AndroidManifest.xml:20:5-22:41
MERGED from [androidx.arch.core:core-runtime:2.1.0] /Users/opastas/.gradle/caches/transforms-2/files-2.1/eef6c7e0774f27aea75b0f2083c15695/AndroidManifest.xml:20:5-22:41
MERGED from [androidx.interpolator:interpolator:1.0.0] /Users/opastas/.gradle/caches/transforms-2/files-2.1/84255b860ade70d35da179d8f72bb1b7/AndroidManifest.xml:20:5-44
MERGED from [androidx.interpolator:interpolator:1.0.0] /Users/opastas/.gradle/caches/transforms-2/files-2.1/84255b860ade70d35da179d8f72bb1b7/AndroidManifest.xml:20:5-44
MERGED from [androidx.documentfile:documentfile:1.0.0] /Users/opastas/.gradle/caches/transforms-2/files-2.1/4bbb5091567a2861678ba507ac600d8f/AndroidManifest.xml:20:5-44
MERGED from [androidx.documentfile:documentfile:1.0.0] /Users/opastas/.gradle/caches/transforms-2/files-2.1/4bbb5091567a2861678ba507ac600d8f/AndroidManifest.xml:20:5-44
MERGED from [androidx.localbroadcastmanager:localbroadcastmanager:1.0.0] /Users/opastas/.gradle/caches/transforms-2/files-2.1/9f5e30a16dc2f41afb46551c8c9f2d13/AndroidManifest.xml:20:5-44
MERGED from [androidx.localbroadcastmanager:localbroadcastmanager:1.0.0] /Users/opastas/.gradle/caches/transforms-2/files-2.1/9f5e30a16dc2f41afb46551c8c9f2d13/AndroidManifest.xml:20:5-44
MERGED from [androidx.print:print:1.0.0] /Users/opastas/.gradle/caches/transforms-2/files-2.1/0823f06e828d371659e9ec707ac5d6ea/AndroidManifest.xml:20:5-44
MERGED from [androidx.print:print:1.0.0] /Users/opastas/.gradle/caches/transforms-2/files-2.1/0823f06e828d371659e9ec707ac5d6ea/AndroidManifest.xml:20:5-44
MERGED from [androidx.annotation:annotation-experimental:1.0.0] /Users/opastas/.gradle/caches/transforms-2/files-2.1/b774dc0cf9121e5fddb5e9091c071700/AndroidManifest.xml:20:5-22:41
MERGED from [androidx.annotation:annotation-experimental:1.0.0] /Users/opastas/.gradle/caches/transforms-2/files-2.1/b774dc0cf9121e5fddb5e9091c071700/AndroidManifest.xml:20:5-22:41
INJECTED from /Users/opastas/Documents/Solution/Adv/AndroidUsersList/Application/src/main/AndroidManifest.xml
INJECTED from /Users/opastas/Documents/Solution/Adv/AndroidUsersList/Application/src/main/AndroidManifest.xml
	android:targetSdkVersion
		INJECTED from /Users/opastas/Documents/Solution/Adv/AndroidUsersList/Application/src/main/AndroidManifest.xml
		ADDED from /Users/opastas/Documents/Solution/Adv/AndroidUsersList/Application/src/main/AndroidManifest.xml
		INJECTED from /Users/opastas/Documents/Solution/Adv/AndroidUsersList/Application/src/main/AndroidManifest.xml
	android:minSdkVersion
		INJECTED from /Users/opastas/Documents/Solution/Adv/AndroidUsersList/Application/src/main/AndroidManifest.xml
		ADDED from /Users/opastas/Documents/Solution/Adv/AndroidUsersList/Application/src/main/AndroidManifest.xml
		INJECTED from /Users/opastas/Documents/Solution/Adv/AndroidUsersList/Application/src/main/AndroidManifest.xml
provider#androidx.lifecycle.ProcessLifecycleOwnerInitializer
ADDED from [androidx.lifecycle:lifecycle-process:2.0.0] /Users/opastas/.gradle/caches/transforms-2/files-2.1/5416d28488c7fc105837412376f5d385/AndroidManifest.xml:23:9-27:43
	android:authorities
		ADDED from [androidx.lifecycle:lifecycle-process:2.0.0] /Users/opastas/.gradle/caches/transforms-2/files-2.1/5416d28488c7fc105837412376f5d385/AndroidManifest.xml:25:13-69
	android:multiprocess
		ADDED from [androidx.lifecycle:lifecycle-process:2.0.0] /Users/opastas/.gradle/caches/transforms-2/files-2.1/5416d28488c7fc105837412376f5d385/AndroidManifest.xml:27:13-40
	android:exported
		ADDED from [androidx.lifecycle:lifecycle-process:2.0.0] /Users/opastas/.gradle/caches/transforms-2/files-2.1/5416d28488c7fc105837412376f5d385/AndroidManifest.xml:26:13-37
	android:name
		ADDED from [androidx.lifecycle:lifecycle-process:2.0.0] /Users/opastas/.gradle/caches/transforms-2/files-2.1/5416d28488c7fc105837412376f5d385/AndroidManifest.xml:24:13-79
